// Furnace characteristic dimensions
x0 = 4.5/2;//		z0|``|````````````````|``|z0
y0 = 3.5/2;//		z1 \ |				  | / z1
z0 = 0.66/2;//		-z0 \|________________|/
y1 = 0.5;//		   -y0-y2 -y0		 	y0	y1+y0
y2 = 0.5;
z1 = 0.02;
z2 = (3*z1+z0)/2;
x1 = 1.5;
x2 = 0.3;
//rotx = 1;
//roty = 0;
//rotz = 0;
//rotangle = -90/180*Pi;

x0=x0+1e-4;
y0=y0+1e-4;
z0=z0+1e-4;

globalMeshFineness = 1 ;
nx = Round(10*Sqrt(x0/Min(x0,Min(y0,z0))))*(1+globalMeshFineness); //mesh elements in x
ny = Round(10*Sqrt(y0/Min(x0,Min(y0,z0))))*(1+globalMeshFineness); //mesh elements in y
nz = Round(10*Sqrt(z0/Min(x0,Min(y0,z0))))*(1+globalMeshFineness); //mesh elements in z

Nx=nx+1;
Ny=ny+1;
Nz=nz+1;
frequency = 1;
magnet_rad = 0.3;
magnet_x = -2.81;
magnet_y = 0;
magnet_z = 0;
magnetgap = Sqrt(Floor(Abs(magnet_x)/x0)*(Abs(magnet_x)-x0)^2+Floor(Abs(magnet_y)/y0)*(Abs(magnet_y)-y0)^2+Floor(Abs(magnet_z)/z0)*(Abs(magnet_z)-z0)^2);
utau = 2*3.14*frequency*magnetgap/2.5;//where 2.5 is empirical coefficient
nu = 3.75e-7;//liquid metal viscosity
yplus = 200;//desired y+ for the chosen turbulence model
cl3 = 2.0*x0/Nx;//default element size at given points
//first = nu*yplus/utau;//first wall element size
first = Sqrt(2)*nu*yplus/(utau*Sqrt((2*Log10(utau*z0/nu)-6.5)^(-2.3)));//first wall element size
bump = 1.0/(2.0*cl3/first-1.0);//smallest-to-largest mesh element ratio
r=1.02;//neighbouring element growth ratio

//exterior (bounding box) of mesh
Point(101) = {-x0-x1/3,-y0-y1, z0, cl3};
Point(102) = {-x0-x1,	-y0, z0, cl3};
Point(103) = {-x0-x1,	 y0, z0, cl3};
Point(104) = {-x0-x1/3, y0+y2, z0, cl3};
Point(105) = {-x0-x1/3,-y0-y1, z2, cl3};
Point(106) = {-x0-x1,	-y0, z2, cl3};
Point(107) = {-x0-x1,	 y0, z2, cl3};
Point(108) = {-x0-x1/3, y0+y2, z2, cl3};

Point(1001) = {-x0,-y0-y1, z0, cl3};
Point(1002) = {-x0,	  -y0, z0, cl3};
Point(1003) = {-x0,	   y0, z0, cl3};
Point(1004) = {-x0, y0+y2, z0, cl3};
Point(1005) = {-x0,-y0-y1, z1, cl3};
Point(1006) = {-x0,	  -y0,-z0, cl3};
Point(1007) = {-x0,	   y0,-z0, cl3};
Point(1008) = {-x0, y0+y2, z1, cl3};

Point(10001) = {x0,-y0-y1, z0, cl3};
Point(10002) = {x0,	  -y0, z0, cl3};
Point(10003) = {x0,	   y0, z0, cl3};
Point(10004) = {x0, y0+y2, z0, cl3};
Point(10005) = {x0,-y0-y1, z1, cl3};
Point(10006) = {x0,	  -y0,-z0, cl3};
Point(10007) = {x0,	   y0,-z0, cl3};
Point(10008) = {x0, y0+y2, z1, cl3};

Point(100001) = {x0+x2/3,-y0-y1, z0, cl3};
Point(100002) = {x0+x2,	  -y0, z0, cl3};
Point(100003) = {x0+x2,	   y0, z0, cl3};
Point(100004) = {x0+x2/3, y0+y2, z0, cl3};
Point(100005) = {x0+x2/3,-y0-y1, z2, cl3};
Point(100006) = {x0+x2,	  -y0, z2, cl3};
Point(100007) = {x0+x2,	   y0, z2, cl3};
Point(100008) = {x0+x2/3, y0+y2, z2, cl3};

Line(201) = {101,102};
Line(202) = {102,103};
Line(203) = {103,104};
Line(204) = {104,108};
Line(205) = {108,107};
Line(206) = {107,106};
Line(207) = {106,105};
Line(208) = {105,101};
Line(2001) = {1001,1002};
Line(2002) = {1002,1003};
Line(2003) = {1003,1004};
Line(2004) = {1004,1008};
Line(2005) = {1008,1007};
Line(2006) = {1007,1006};
Line(2007) = {1006,1005};
Line(2008) = {1005,1001};
Line(20001) = {10001,10002};
Line(20002) = {10002,10003};
Line(20003) = {10003,10004};
Line(20004) = {10004,10008};
Line(20005) = {10008,10007};
Line(20006) = {10007,10006};
Line(20007) = {10006,10005};
Line(20008) = {10005,10001};
Line(200001) = {100001,100002};
Line(200002) = {100002,100003};
Line(200003) = {100003,100004};
Line(200004) = {100004,100008};
Line(200005) = {100008,100007};
Line(200006) = {100007,100006};
Line(200007) = {100006,100005};
Line(200008) = {100005,100001};

Line(301) = {101,1001};
Line(302) = {1001,10001};
Line(303) = {10001,100001};
Line(304) = {102,1002};
Line(305) = {1002,10002};
Line(306) = {10002,100002};
Line(307) = {103,1003};
Line(308) = {1003,10003};
Line(309) = {10003,100003};
Line(310) = {104,1004};
Line(311) = {1004,10004};
Line(312) = {10004,100004};
Line(313) = {105,1005};
Line(314) = {1005,10005};
Line(315) = {10005,100005};
Line(316) = {106,1006};
Line(317) = {1006,10006};
Line(318) = {10006,100006};
Line(319) = {107,1007};
Line(320) = {1007,10007};
Line(321) = {10007,100007};
Line(322) = {108,1008};
Line(323) = {1008,10008};
Line(324) = {10008,100008};
Line(3001) = {102,106};
Line(3002) = {103,107};
Line(3003) = {1002,1006};
Line(3004) = {1003,1007};
Line(3005) = {10002,10006};
Line(3006) = {10003,10007};
Line(3007) = {100002,100006};
Line(3008) = {100003,100007};

Line Loop(401) = {201, 3001, 207, 208};
Line Loop(402) = {202, 3002, 206, -3001};
Line Loop(403) = {203, 204, 205, -3002};
Line Loop(4001) = {2001, 3003, 2007, 2008};
Line Loop(4002) = {2002, 3004, 2006, -3003};
Line Loop(4003) = {2003, 2004, 2005, -3004};
Line Loop(40001) = {20001, 3005, 20007, 20008};
Line Loop(40002) = {20002, 3006, 20006, -3005};
Line Loop(40003) = {20003, 20004, 20005, -3006};
Line Loop(400001) = {200001, 3007, 200007, 200008};
Line Loop(400002) = {200002, 3008, 200006, -3007};
Line Loop(400003) = {200003, 200004, 200005, -3008};

Line Loop(501) = {-301, -208, 313, 2008};
Line Loop(502) = {-302, -2008, 314, 20008};
Line Loop(503) = {-303, -20008, 315, 200008};
Line Loop(5001) = {-304, 3001, 316, -3003};
Line Loop(5002) = {-305, 3003, 317, -3005};
Line Loop(5003) = {-306, 3005, 318, -3007};
Line Loop(50001) = {-307, 3002, 319, -3004};
Line Loop(50002) = {-308, 3004, 320, -3006};
Line Loop(50003) = {-309, 3006, 321, -3008};
Line Loop(500001) = {-310, 204, 322, -2004};
Line Loop(500002) = {-311, 2004, 323, -20004};
Line Loop(500003) = {-312, 20004, 324, -200004};

Line Loop(601) = {-301, 201, 304, -2001};
Line Loop(602) = {-302, 2001, 305, -20001};
Line Loop(603) = {-303, 20001, 306, -200001};
Line Loop(604) = {-304, 202, 307, -2002};
Line Loop(605) = {-305, 2002, 308, -20002};
Line Loop(606) = {-306, 20002, 309, -200002};
Line Loop(607) = {-307, 203, 310, -2003};
Line Loop(608) = {-308, 2003, 311, -20003};
Line Loop(609) = {-309, 20003, 312, -200003};
Line Loop(6001) = {-313, -207, 316, 2007};
Line Loop(6002) = {-314, -2007, 317, 20007};
Line Loop(6003) = {-315, -20007, 318, 200007};
Line Loop(6004) = {-316, -206, 319, 2006};
Line Loop(6005) = {-317, -2006, 320, 20006};
Line Loop(6006) = {-318, -20006, 321, 200006};
Line Loop(6007) = {-319, -205, 322, 2005};
Line Loop(6008) = {-320, -2005, 323, 20005};
Line Loop(6009) = {-321, -20005, 324, 200005};

Plane Surface(701) = {401};
Plane Surface(702) = {402};
Plane Surface(703) = {403};
Plane Surface(704) = {4001};
Plane Surface(705) = {4002};
Plane Surface(706) = {4003};
Plane Surface(707) = {40001};
Plane Surface(708) = {40002};
Plane Surface(709) = {40003};
Plane Surface(710) = {400001};
Plane Surface(711) = {400002};
Plane Surface(712) = {400003};
Plane Surface(7001) = {501};
Plane Surface(7002) = {502};
Plane Surface(7003) = {503};
Plane Surface(7004) = {5001};
Plane Surface(7005) = {5002};
Plane Surface(7006) = {5003};
Plane Surface(7007) = {50001};
Plane Surface(7008) = {50002};
Plane Surface(7009) = {50003};
Plane Surface(7010) = {500001};
Plane Surface(7011) = {500002};
Plane Surface(7012) = {500003};
Plane Surface(70001) = {601};
Plane Surface(70002) = {602};
Plane Surface(70003) = {603};
Plane Surface(70004) = {604};
Plane Surface(70005) = {605};
Plane Surface(70006) = {606};
Plane Surface(70007) = {607};
Plane Surface(70008) = {608};
Plane Surface(70009) = {609};
Plane Surface(700001) = {6001};
Plane Surface(700002) = {6002};
Plane Surface(700003) = {6003};
Plane Surface(700004) = {6004};
Plane Surface(700005) = {6005};
Plane Surface(700006) = {6006};
Plane Surface(700007) = {6007};
Plane Surface(700008) = {6008};
Plane Surface(700009) = {6009};

Transfinite Line {301,304,307,310,313,316,319,322} = Nx/2 Using Bump bump;//neg x part
Transfinite Line {302,305,308,311,314,317,320,323} = Nx Using Bump bump;//	mid x part
Transfinite Line {303,306,309,312,315,318,321,324} = Nx/2 Using Bump bump;//pos x part
Transfinite Line {204,2004,20004,200004,208,2008,20008,200008} = Nz Using Bump bump;//z part
Transfinite Line {3001,3002,3003,3004,3005,3006,3007,3008} = Nz Using Bump bump;//z part
Transfinite Line {201,2001,20001,200001,207,2007,20007,200007} = Ny/2 Using Bump bump;//neg x part
Transfinite Line {202,2002,20002,200002,206,2006,20006,200006} = Ny Using Bump bump;//	mid x part
Transfinite Line {203,2003,20003,200003,205,2005,20005,200005} = Ny/2 Using Bump bump;//mid x part
//Example: Transfinite Line { -1, 3, -9, 11} = Ny Using Bump bump;//Ny Using Progression r;//

Surface Loop(800) = {710,711,712,700003,700006,700009,701,702,703,700001,700004,700007,700002,7001,7002,7003,700008,7010,7011,7012,70001,70002,70003,70004,70005,70006,70007,70008,70009,700005};
Surface Loop(801) = {701,704,7001,7004,70001,700001};
Surface Loop(802) = {702,705,7004,7007,70004,700004};
Surface Loop(803) = {703,706,7007,7010,70007,700007};
Surface Loop(804) = {704,707,7002,7005,70002,700002};
Surface Loop(805) = {705,708,7005,7008,70005,700005};
Surface Loop(806) = {706,709,7008,7011,70008,700008};
Surface Loop(807) = {707,710,7003,7006,70003,700003};
Surface Loop(808) = {708,711,7006,7009,70006,700006};
Surface Loop(809) = {709,712,7009,7012,70009,700009};
Volume(901) = {801};
Volume(902) = {802};
Volume(903) = {803};
Volume(904) = {804};
Volume(905) = {805};
Volume(906) = {806};
Volume(907) = {807};
Volume(908) = {808};
Volume(909) = {809};

Transfinite Volume "*";
Recombine Volume "*";
Transfinite Surface "*";
Recombine Surface "*";

//Rotate {{rotx,roty,rotz}, {0,0,0}, rotangle} {Volume{ext1[1]};}

Physical Surface("front") = {710,711,712,700003,700006,700009};
Physical Surface("back") = {701,702,703,700001,700004,700007};
Physical Surface("right") = {700002,7001,7002,7003};
Physical Surface("left") = {700008,7010,7011,7012};
Physical Surface("top") = {70001,70002,70003,70004,70005,70006,70007,70008,70009};
Physical Surface("bot") = {700005};
Physical Volume("furnace") = {901,902,903,904,905,906,907,908,909};
Show "*";